<?xml version="1.0" encoding="utf-8"?>
<!-- Generator: Adobe Illustrator 20.0.0, SVG Export Plug-In . SVG Version: 6.00 Build 0)  -->
<svg version="1.1" id="Layer_1" xmlns="http://www.w3.org/2000/svg" xmlns:xlink="http://www.w3.org/1999/xlink" x="0px" y="0px"
	 viewBox="0 0 2048 2048" style="enable-background:new 0 0 2048 2048;" xml:space="preserve">
<style type="text/css">
	.st0{fill:#1E88C3;}
</style>
<g>
	<path class="st0" d="M1036.5,506.9L909.8,380.3H257.8v0.3v1287.6v118.8v2l1532.5-2V506.9H1036.5z M1671.4,1668.3H376.6V499.4h484.4L991.5,630
		l679.9-0.3V1668.3z"/>
</g>
</svg>
